strict graph grafo1 {
	graph [bb="0,0,7571,233",
		id=grafo1,
		overlap=False
	];
	node [fontsize=8,
		label="\N",
		shape=rectangle,
		style=filled
	];
	0	 [color="#17272B",
		fontcolor="#FFFFFF",
		height=0.23611,
		label="Roberlaine Ribeiro Jorge [0]",
		pos="55,224.5",
		width=1.5278];
	1	 [color="#17272B",
		fontcolor="#FFFFFF",
		height=0.23611,
		label="Adriana Gindri Salbego [0]",
		pos="181,224.5",
		width=1.4722];
	2	 [color="#17272B",
		fontcolor="#FFFFFF",
		height=0.23611,
		label="Aldoni Gabriel Wiedenhoft [0]",
		pos="311,224.5",
		width=1.625];
	3	 [color="#17272B",
		fontcolor="#FFFFFF",
		height=0.23611,
		label="Alessandro Bof de Oliveira [3]",
		pos="447,224.5",
		width=1.6389];
	4	 [color="#17272B",
		fontcolor="#FFFFFF",
		height=0.23611,
		label="Alessandro Gonçalves Girardi [12]",
		pos="626,170.5",
		width=1.8194];
	3 -- 4	 [pos="473.03,215.94 506.97,206.08 565.99,188.93 599.94,179.07"];
	32	 [URL="http://buscatextual.cnpq.br/buscatextual/visualizacv.do?metodo=apresentar&id=K4705411A3&tipo=completo&idiomaExibicao=1",
		color="#17272B",
		fontcolor="#FFFFFF",
		height=0.23611,
		label="Fabio Natanael Kepler [3]",
		pos="447,116.5",
		width=1.4306];
	3 -- 32	 [pos="447,215.88 447,196.32 447,144.54 447,125.05"];
	61	 [URL="http://buscatextual.cnpq.br/buscatextual/visualizacv.do?metodo=apresentar&id=K4762397U0&tipo=completo&idiomaExibicao=1",
		color="#17272B",
		fontcolor="#FFFFFF",
		height=0.23611,
		label="Marcia Cristina Cera [4]",
		pos="486,8.5",
		width=1.3611];
	3 -- 61	 [pos="437.63,215.85 416.47,197.6 368.2,149.87 386,107.5 403.89,64.92 450.31,31.562 473.05,17.192"];
	4 -- 32	 [pos="599.97,161.94 566.03,152.08 507.01,134.93 473.06,125.07"];
	4 -- 61	 [pos="691.46,165.91 751.37,161.1 833.69,150.1 854,125.5 859.09,119.33 858.87,113.84 854,107.5 815.12,56.913 625.7,26.901 534.83,15.193"];
	53	 [URL="http://buscatextual.cnpq.br/buscatextual/visualizacv.do?metodo=apresentar&id=K4207651A5&tipo=completo&idiomaExibicao=1",
		color="#17272B",
		fontcolor="#FFFFFF",
		height=0.23611,
		label="Lucas Compassi Severo [8]",
		pos="570,116.5",
		width=1.4722];
	4 -- 53	 [pos="617.74,161.83 607.15,152 588.9,135.05 578.3,125.2"];
	73	 [URL="http://buscatextual.cnpq.br/buscatextual/visualizacv.do?metodo=apresentar&id=K4775723P6&tipo=completo&idiomaExibicao=1",
		color="#17272B",
		fontcolor="#FFFFFF",
		height=0.23611,
		label="Sidinei Ghissoni [1]",
		pos="682,116.5",
		width=1.125];
	4 -- 73	 [pos="634.26,161.83 644.85,152 663.1,135.05 673.7,125.2"];
	75	 [URL="http://buscatextual.cnpq.br/buscatextual/visualizacv.do?metodo=apresentar&id=K4431947U4&tipo=completo&idiomaExibicao=1",
		color="#17272B",
		fontcolor="#FFFFFF",
		height=0.23611,
		label="Tanísia Possani Severo [2]",
		pos="793,116.5",
		width=1.4444];
	4 -- 75	 [pos="650.28,161.94 681.95,152.08 737.01,134.93 768.69,125.07"];
	32 -- 61	 [pos="449.03,107.76 452.2,95.915 458.74,72.662 466,53.5 470.93,40.474 477.88,25.84 482.15,17.161"];
	44	 [URL="http://buscatextual.cnpq.br/buscatextual/visualizacv.do?metodo=apresentar&id=K4706127U2&tipo=completo&idiomaExibicao=1",
		color="#17272B",
		fontcolor="#FFFFFF",
		height=0.23611,
		label="João P. Silva da Silva [3]",
		pos="525,62.5",
		width=1.375];
	32 -- 44	 [pos="458.51,107.83 473.34,97.939 498.97,80.856 513.7,71.035"];
	44 -- 61	 [pos="519.25,53.827 511.87,43.996 499.16,27.051 491.78,17.204"];
	59	 [URL="http://buscatextual.cnpq.br/buscatextual/visualizacv.do?metodo=apresentar&id=K4200570U3&tipo=completo&idiomaExibicao=1",
		color="#17272B",
		fontcolor="#FFFFFF",
		height=0.23611,
		label="Magnos Baroni [5]",
		pos="938,8.5",
		width=1.0694];
	44 -- 59	 [pos="574.41,55.279 657.7,44.793 824.31,23.815 899.55,14.341"];
	5	 [URL="http://buscatextual.cnpq.br/buscatextual/visualizacv.do?metodo=apresentar&id=K4493298H6&tipo=completo&idiomaExibicao=1",
		color="#17272B",
		fontcolor="#FFFFFF",
		height=0.23611,
		label="Alice Fonseca Finger [0]",
		pos="573,224.5",
		width=1.3611];
	6	 [URL="http://buscatextual.cnpq.br/buscatextual/visualizacv.do?metodo=apresentar&id=K4762604D8&tipo=completo&idiomaExibicao=1",
		color="#17272B",
		fontcolor="#FFFFFF",
		height=0.23611,
		label="Aline Vieira de Mello [0]",
		pos="691,224.5",
		width=1.4028];
	7	 [URL="http://buscatextual.cnpq.br/buscatextual/visualizacv.do?metodo=apresentar&id=K4138436A2&tipo=completo&idiomaExibicao=1",
		color="#17272B",
		fontcolor="#FFFFFF",
		height=0.23611,
		label="Alisson Simonetti Milani [0]",
		pos="814,224.5",
		width=1.5139];
	8	 [URL="http://buscatextual.cnpq.br/buscatextual/visualizacv.do?metodo=apresentar&id=K4768356E6&tipo=completo&idiomaExibicao=1",
		color="#17272B",
		fontcolor="#FFFFFF",
		height=0.23611,
		label="Almir B. da S. Santos Neto [3]",
		pos="946,224.5",
		width=1.6389];
	11	 [URL="http://buscatextual.cnpq.br/buscatextual/visualizacv.do?metodo=apresentar&id=K4746902Z8&tipo=completo&idiomaExibicao=1",
		color="#17272B",
		fontcolor="#FFFFFF",
		height=0.23611,
		label="André Lübeck [2]",
		pos="946,170.5",
		width=1.0417];
	8 -- 11	 [pos="946,215.83 946,206 946,189.05 946,179.2"];
	81	 [URL="http://buscatextual.cnpq.br/buscatextual/visualizacv.do?metodo=apresentar&id=K4763907P7&tipo=completo&idiomaExibicao=1",
		color="#17272B",
		fontcolor="#FFFFFF",
		height=0.23611,
		label="Wang Chong [2]",
		pos="1056,170.5",
		width=0.97222];
	8 -- 81	 [pos="962.23,215.83 983.15,205.94 1019.3,188.86 1040.1,179.04"];
	9	 [URL="http://buscatextual.cnpq.br/buscatextual/visualizacv.do?metodo=apresentar&id=K4706031A3&tipo=completo&idiomaExibicao=1",
		color="#17272B",
		fontcolor="#FFFFFF",
		height=0.23611,
		label="Amanda Meincke Melo [1]",
		pos="1197,224.5",
		width=1.4444];
	17	 [URL="http://buscatextual.cnpq.br/buscatextual/visualizacv.do?metodo=apresentar&id=K4531572T6&tipo=completo&idiomaExibicao=1",
		color="#17272B",
		fontcolor="#FFFFFF",
		height=0.23611,
		label="Cristiano Tolfo [2]",
		pos="1197,170.5",
		width=1.0833];
	9 -- 17	 [pos="1197,215.83 1197,206 1197,189.05 1197,179.2"];
	36	 [URL="http://buscatextual.cnpq.br/buscatextual/visualizacv.do?metodo=apresentar&id=K4772321Z0&tipo=completo&idiomaExibicao=1",
		color="#17272B",
		fontcolor="#FFFFFF",
		height=0.23611,
		label="Fladimir Fernandes dos Santos [1]",
		pos="1197,116.5",
		width=1.7778];
	17 -- 36	 [pos="1197,161.83 1197,152 1197,135.05 1197,125.2"];
	10	 [URL="http://buscatextual.cnpq.br/buscatextual/visualizacv.do?metodo=apresentar&id=K4830788U3&tipo=completo&idiomaExibicao=1",
		color="#17272B",
		fontcolor="#FFFFFF",
		height=0.23611,
		label="Ana P. Gomes Lara [0]",
		pos="1314,224.5",
		width=1.3056];
	12	 [URL="http://buscatextual.cnpq.br/buscatextual/visualizacv.do?metodo=apresentar&id=K4774489J5&tipo=completo&idiomaExibicao=1",
		color="#17272B",
		fontcolor="#FFFFFF",
		height=0.23611,
		label="Andréa Sabedra Bordin [0]",
		pos="1432,224.5",
		width=1.4583];
	13	 [URL="http://buscatextual.cnpq.br/buscatextual/visualizacv.do?metodo=apresentar&id=K4455561J2&tipo=completo&idiomaExibicao=1",
		color="#17272B",
		fontcolor="#FFFFFF",
		height=0.23611,
		label="Bruno Boessio Vizzotto [0]",
		pos="1555,224.5",
		width=1.4583];
	14	 [URL="http://buscatextual.cnpq.br/buscatextual/visualizacv.do?metodo=apresentar&id=K4784311T9&tipo=completo&idiomaExibicao=1",
		color="#17272B",
		fontcolor="#FFFFFF",
		height=0.23611,
		label="Carlos A. Dilli Gonçalves [0]",
		pos="1682,224.5",
		width=1.5694];
	15	 [URL="http://buscatextual.cnpq.br/buscatextual/visualizacv.do?metodo=apresentar&id=K4210138P2&tipo=completo&idiomaExibicao=1",
		color="#17272B",
		fontcolor="#FFFFFF",
		height=0.23611,
		label="Cesar F. da Cruz Cristaldo [0]",
		pos="1815,224.5",
		width=1.6111];
	16	 [URL="http://buscatextual.cnpq.br/buscatextual/visualizacv.do?metodo=apresentar&id=K4735383Y1&tipo=completo&idiomaExibicao=1",
		color="#17272B",
		fontcolor="#FFFFFF",
		height=0.23611,
		label="Claudio Schepke [0]",
		pos="1933,224.5",
		width=1.1528];
	18	 [URL="http://buscatextual.cnpq.br/buscatextual/visualizacv.do?metodo=apresentar&id=K4700020T3&tipo=completo&idiomaExibicao=1",
		color="#17272B",
		fontcolor="#FFFFFF",
		height=0.23611,
		label="Daniel Welfer [1]",
		pos="2031,224.5",
		width=1.0556];
	50	 [URL="http://buscatextual.cnpq.br/buscatextual/visualizacv.do?metodo=apresentar&id=K4737837T5&tipo=completo&idiomaExibicao=1",
		color="#17272B",
		fontcolor="#FFFFFF",
		height=0.23611,
		label="Juliano Fontoura Kazienko [1]",
		pos="2031,170.5",
		width=1.5972];
	18 -- 50	 [pos="2031,215.83 2031,206 2031,189.05 2031,179.2"];
	19	 [URL="http://buscatextual.cnpq.br/buscatextual/visualizacv.do?metodo=apresentar&id=K4701470D0&tipo=completo&idiomaExibicao=1",
		color="#17272B",
		fontcolor="#FFFFFF",
		height=0.23611,
		label="Diego Luis Kreutz [0]",
		pos="2132,224.5",
		width=1.2361];
	20	 [URL="http://buscatextual.cnpq.br/buscatextual/visualizacv.do?metodo=apresentar&id=K4777459H9&tipo=completo&idiomaExibicao=1",
		color="#17272B",
		fontcolor="#FFFFFF",
		height=0.23611,
		label="Divane Marcon [1]",
		pos="2234,224.5",
		width=1.0972];
	29	 [URL="http://buscatextual.cnpq.br/buscatextual/visualizacv.do?metodo=apresentar&id=K4750344P6&tipo=completo&idiomaExibicao=1",
		color="#17272B",
		fontcolor="#FFFFFF",
		height=0.23611,
		label="Fabiane C. Höpner Noguti [1]",
		pos="2234,170.5",
		width=1.5833];
	20 -- 29	 [pos="2234,215.83 2234,206 2234,189.05 2234,179.2"];
	21	 [URL="http://buscatextual.cnpq.br/buscatextual/visualizacv.do?metodo=apresentar&id=K4422977Z6&tipo=completo&idiomaExibicao=1",
		color="#17272B",
		fontcolor="#FFFFFF",
		height=0.23611,
		label="Douglas Eduardo Rosa [0]",
		pos="2342,224.5",
		width=1.4167];
	22	 [URL="http://buscatextual.cnpq.br/buscatextual/visualizacv.do?metodo=apresentar&id=K4706637E6&tipo=completo&idiomaExibicao=1",
		color="#17272B",
		fontcolor="#FFFFFF",
		height=0.23611,
		label="Ederli Marangon [3]",
		pos="1003,116.5",
		width=1.1528];
	22 -- 59	 [pos="1001.9,107.73 999.93,95.448 994.87,71.133 984,53.5 974.72,38.449 959.07,25.024 948.64,17.072"];
	42	 [URL="http://buscatextual.cnpq.br/buscatextual/visualizacv.do?metodo=apresentar&id=K4240145H4&tipo=completo&idiomaExibicao=1",
		color="#17272B",
		fontcolor="#FFFFFF",
		height=0.23611,
		label="Jaelson Budny [3]",
		pos="938,62.5",
		width=1.0278];
	22 -- 42	 [pos="993.41,107.83 981.12,97.996 959.94,81.051 947.63,71.204"];
	63	 [URL="http://buscatextual.cnpq.br/buscatextual/visualizacv.do?metodo=apresentar&id=K4793625H0&tipo=completo&idiomaExibicao=1",
		color="#17272B",
		fontcolor="#FFFFFF",
		height=0.23611,
		label="Marco A. Durlo Tier [5]",
		pos="1080,62.5",
		width=1.3611];
	22 -- 63	 [pos="1014.4,107.83 1029,97.939 1054.3,80.856 1068.8,71.035"];
	42 -- 59	 [pos="938,53.827 938,43.996 938,27.051 938,17.204"];
	77	 [URL="http://buscatextual.cnpq.br/buscatextual/visualizacv.do?metodo=apresentar&id=K4773464H8&tipo=completo&idiomaExibicao=1",
		color="#17272B",
		fontcolor="#FFFFFF",
		height=0.23611,
		label="Tonilson de Souza Rosendo [4]",
		pos="1080,8.5",
		width=1.625];
	63 -- 77	 [pos="1080,53.827 1080,43.996 1080,27.051 1080,17.204"];
	23	 [URL="http://buscatextual.cnpq.br/buscatextual/visualizacv.do?metodo=apresentar&id=K4771052D4&tipo=completo&idiomaExibicao=1",
		color="#17272B",
		fontcolor="#FFFFFF",
		height=0.23611,
		label="Edgar G. Souza dos Santos [0]",
		pos="2469,224.5",
		width=1.6111];
	24	 [URL="http://buscatextual.cnpq.br/buscatextual/visualizacv.do?metodo=apresentar&id=K4489747T3&tipo=completo&idiomaExibicao=1",
		color="#17272B",
		fontcolor="#FFFFFF",
		height=0.23611,
		label="Edson Rodrigo Schlosser [6]",
		pos="2600,224.5",
		width=1.5139];
	54	 [URL="http://buscatextual.cnpq.br/buscatextual/visualizacv.do?metodo=apresentar&id=K4431976H3&tipo=completo&idiomaExibicao=1",
		color="#17272B",
		fontcolor="#FFFFFF",
		height=0.23611,
		label="Lucas Santos Pereira [1]",
		pos="2587,170.5",
		width=1.3611];
	24 -- 54	 [pos="2598.1,215.83 2595.6,206 2591.4,189.05 2588.9,179.2"];
	64	 [URL="http://buscatextual.cnpq.br/buscatextual/visualizacv.do?metodo=apresentar&id=K4760949D2&tipo=completo&idiomaExibicao=1",
		color="#17272B",
		fontcolor="#FFFFFF",
		height=0.23611,
		label="Marcos V. Thomas Heckler [7]",
		pos="2664,116.5",
		width=1.6528];
	24 -- 64	 [pos="2610.1,215.8 2620.1,207.75 2635,194.25 2644,179.5 2654.9,161.74 2660.4,137.48 2662.7,125.24"];
	54 -- 64	 [pos="2598.4,161.83 2613,151.94 2638.3,134.86 2652.8,125.04"];
	25	 [URL="http://buscatextual.cnpq.br/buscatextual/visualizacv.do?metodo=apresentar&id=K4447823J3&tipo=completo&idiomaExibicao=1",
		color="#17272B",
		fontcolor="#FFFFFF",
		height=0.23611,
		label="Eduardo Machado dos Santos [0]",
		pos="2863,224.5",
		width=1.7083];
	26	 [URL="http://buscatextual.cnpq.br/buscatextual/visualizacv.do?metodo=apresentar&id=K4745901E6&tipo=completo&idiomaExibicao=1",
		color="#17272B",
		fontcolor="#FFFFFF",
		height=0.23611,
		label="Elvira L. A. Ribeiro Mancini [0]",
		pos="3005,224.5",
		width=1.7222];
	27	 [URL="http://buscatextual.cnpq.br/buscatextual/visualizacv.do?metodo=apresentar&id=K4736047Y7&tipo=completo&idiomaExibicao=1",
		color="#17272B",
		fontcolor="#FFFFFF",
		height=0.23611,
		label="Eracilda Fontanela [0]",
		pos="3130,224.5",
		width=1.25];
	28	 [URL="http://buscatextual.cnpq.br/buscatextual/visualizacv.do?metodo=apresentar&id=K4777486H1&tipo=completo&idiomaExibicao=1",
		color="#17272B",
		fontcolor="#FFFFFF",
		height=0.23611,
		label="Ewerson L. de Souza Carvalho [0]",
		pos="3258,224.5",
		width=1.8056];
	30	 [URL="http://buscatextual.cnpq.br/buscatextual/visualizacv.do?metodo=apresentar&id=K4730810Z6&tipo=completo&idiomaExibicao=1",
		color="#17272B",
		fontcolor="#FFFFFF",
		height=0.23611,
		label="Fabiano Tondello Castoldi [0]",
		pos="3398,224.5",
		width=1.5694];
	31	 [URL="http://buscatextual.cnpq.br/buscatextual/visualizacv.do?metodo=apresentar&id=K4217693Y4&tipo=completo&idiomaExibicao=1",
		color="#17272B",
		fontcolor="#FFFFFF",
		height=0.23611,
		label="Fábio Beck [0]",
		pos="3505,224.5",
		width=0.90278];
	33	 [URL="http://buscatextual.cnpq.br/buscatextual/visualizacv.do?metodo=apresentar&id=K4756138Z6&tipo=completo&idiomaExibicao=1",
		color="#17272B",
		fontcolor="#FFFFFF",
		height=0.23611,
		label="Fátima Cibéle Soares [4]",
		pos="2734,224.5",
		width=1.3611];
	51	 [URL="http://buscatextual.cnpq.br/buscatextual/visualizacv.do?metodo=apresentar&id=K4765516D8&tipo=completo&idiomaExibicao=1",
		color="#17272B",
		fontcolor="#FFFFFF",
		height=0.23611,
		label="Jumar Luís Russi [5]",
		pos="2734,170.5",
		width=1.1667];
	33 -- 51	 [pos="2734,215.83 2734,206 2734,189.05 2734,179.2"];
	51 -- 64	 [pos="2723.7,161.83 2710.4,152 2687.6,135.05 2674.4,125.2"];
	34	 [URL="http://buscatextual.cnpq.br/buscatextual/visualizacv.do?metodo=apresentar&id=K4531964J0&tipo=completo&idiomaExibicao=1",
		color="#17272B",
		fontcolor="#FFFFFF",
		height=0.23611,
		label="Felipe Bovolini Grigoletto [0]",
		pos="3612,224.5",
		width=1.5694];
	35	 [URL="http://buscatextual.cnpq.br/buscatextual/visualizacv.do?metodo=apresentar&id=K4227366P8&tipo=completo&idiomaExibicao=1",
		color="#17272B",
		fontcolor="#FFFFFF",
		height=0.23611,
		label="Felipe Denardin Costa [0]",
		pos="3737,224.5",
		width=1.4028];
	37	 [URL="http://buscatextual.cnpq.br/buscatextual/visualizacv.do?metodo=apresentar&id=K4232121Z5&tipo=completo&idiomaExibicao=1",
		color="#17272B",
		fontcolor="#FFFFFF",
		height=0.23611,
		label="Giovani Guarienti Pozzebon [0]",
		pos="3866,224.5",
		width=1.6667];
	38	 [URL="http://buscatextual.cnpq.br/buscatextual/visualizacv.do?metodo=apresentar&id=K4262327Z0&tipo=completo&idiomaExibicao=1",
		color="#17272B",
		fontcolor="#FFFFFF",
		height=0.23611,
		label="Guilherme Sebastião da Silva [0]",
		pos="4007,224.5",
		width=1.7361];
	39	 [URL="http://buscatextual.cnpq.br/buscatextual/visualizacv.do?metodo=apresentar&id=K4704445Z0&tipo=completo&idiomaExibicao=1",
		color="#17272B",
		fontcolor="#FFFFFF",
		height=0.23611,
		label="Gustavo Fuhr Santiago [0]",
		pos="4139,224.5",
		width=1.4167];
	40	 [URL="http://buscatextual.cnpq.br/buscatextual/visualizacv.do?metodo=apresentar&id=K4113352J0&tipo=completo&idiomaExibicao=1",
		color="#17272B",
		fontcolor="#FFFFFF",
		height=0.23611,
		label="Igor A. Cancela Melnik [0]",
		pos="4261,224.5",
		width=1.4722];
	41	 [URL="http://buscatextual.cnpq.br/buscatextual/visualizacv.do?metodo=apresentar&id=K4238605T3&tipo=completo&idiomaExibicao=1",
		color="#17272B",
		fontcolor="#FFFFFF",
		height=0.23611,
		label="Jacson Weber de Menezes [1]",
		pos="4389,224.5",
		width=1.5833];
	56	 [URL="http://buscatextual.cnpq.br/buscatextual/visualizacv.do?metodo=apresentar&id=K4138584E7&tipo=completo&idiomaExibicao=1",
		color="#17272B",
		fontcolor="#FFFFFF",
		height=0.23611,
		label="Luis E. Gomez Armas [1]",
		pos="4389,170.5",
		width=1.4167];
	41 -- 56	 [pos="4389,215.83 4389,206 4389,189.05 4389,179.2"];
	43	 [URL="http://buscatextual.cnpq.br/buscatextual/visualizacv.do?metodo=apresentar&id=K4735796P2&tipo=completo&idiomaExibicao=1",
		color="#17272B",
		fontcolor="#FFFFFF",
		height=0.23611,
		label="Jean F. Patikowski Cheiran [0]",
		pos="4523,224.5",
		width=1.625];
	45	 [URL="http://buscatextual.cnpq.br/buscatextual/visualizacv.do?metodo=apresentar&id=K4730421U3&tipo=completo&idiomaExibicao=1",
		color="#17272B",
		fontcolor="#FFFFFF",
		height=0.23611,
		label="João P. Juchem Neto [0]",
		pos="4648,224.5",
		width=1.3333];
	46	 [URL="http://buscatextual.cnpq.br/buscatextual/visualizacv.do?metodo=apresentar&id=K4794689T3&tipo=completo&idiomaExibicao=1",
		color="#17272B",
		fontcolor="#FFFFFF",
		height=0.23611,
		label="Jorge L. Palacios Felix [1]",
		pos="1075,224.5",
		width=1.4444];
	46 -- 81	 [pos="1072.2,215.83 1068.6,206 1062.4,189.05 1058.8,179.2"];
	47	 [URL="http://buscatextual.cnpq.br/buscatextual/visualizacv.do?metodo=apresentar&id=K4790963U4&tipo=completo&idiomaExibicao=1",
		color="#17272B",
		fontcolor="#FFFFFF",
		height=0.23611,
		label="Jorge Pedraza Arpasi [0]",
		pos="4763,224.5",
		width=1.3611];
	48	 [URL="http://buscatextual.cnpq.br/buscatextual/visualizacv.do?metodo=apresentar&id=K4782175D9&tipo=completo&idiomaExibicao=1",
		color="#17272B",
		fontcolor="#FFFFFF",
		height=0.23611,
		label="José C. Bins Filho [0]",
		pos="4874,224.5",
		width=1.2083];
	49	 [URL="http://buscatextual.cnpq.br/buscatextual/visualizacv.do?metodo=apresentar&id=K4787582U6&tipo=completo&idiomaExibicao=1",
		color="#17272B",
		fontcolor="#FFFFFF",
		height=0.23611,
		label="Jose W. Maciel Kaehler [0]",
		pos="4989,224.5",
		width=1.4861];
	52	 [URL="http://buscatextual.cnpq.br/buscatextual/visualizacv.do?metodo=apresentar&id=K4120287A6&tipo=completo&idiomaExibicao=1",
		color="#17272B",
		fontcolor="#FFFFFF",
		height=0.23611,
		label="Leandro Antônio Thesing [0]",
		pos="5116,224.5",
		width=1.5417];
	55	 [URL="http://buscatextual.cnpq.br/buscatextual/visualizacv.do?metodo=apresentar&id=K4463499Z6&tipo=completo&idiomaExibicao=1",
		color="#17272B",
		fontcolor="#FFFFFF",
		height=0.23611,
		label="Luis Eduardo Kosteski [0]",
		pos="5240,224.5",
		width=1.4167];
	57	 [URL="http://buscatextual.cnpq.br/buscatextual/visualizacv.do?metodo=apresentar&id=K4721788P2&tipo=completo&idiomaExibicao=1",
		color="#17272B",
		fontcolor="#FFFFFF",
		height=0.23611,
		label="Luis E. Roca Bruno [0]",
		pos="5355,224.5",
		width=1.2917];
	58	 [URL="http://buscatextual.cnpq.br/buscatextual/visualizacv.do?metodo=apresentar&id=K4219983D6&tipo=completo&idiomaExibicao=1",
		color="#17272B",
		fontcolor="#FFFFFF",
		height=0.23611,
		label="Luiz A. Maccari Junior [0]",
		pos="5472,224.5",
		width=1.4583];
	60	 [URL="http://buscatextual.cnpq.br/buscatextual/visualizacv.do?metodo=apresentar&id=K4446502U7&tipo=completo&idiomaExibicao=1",
		color="#17272B",
		fontcolor="#FFFFFF",
		height=0.23611,
		label="Marcelo Hahn Durgante [0]",
		pos="5596,224.5",
		width=1.4861];
	62	 [URL="http://buscatextual.cnpq.br/buscatextual/visualizacv.do?metodo=apresentar&id=K4771459U5&tipo=completo&idiomaExibicao=1",
		color="#17272B",
		fontcolor="#FFFFFF",
		height=0.23611,
		label="Márcio Stefanello [0]",
		pos="5711,224.5",
		width=1.2083];
	65	 [URL="http://buscatextual.cnpq.br/buscatextual/visualizacv.do?metodo=apresentar&id=K4133092P8&tipo=completo&idiomaExibicao=1",
		color="#17272B",
		fontcolor="#FFFFFF",
		height=0.23611,
		label="Marilia Ferreira Tamiosso [0]",
		pos="5830,224.5",
		width=1.5972];
	66	 [URL="http://buscatextual.cnpq.br/buscatextual/visualizacv.do?metodo=apresentar&id=K4450378T2&tipo=completo&idiomaExibicao=1",
		color="#17272B",
		fontcolor="#FFFFFF",
		height=0.23611,
		label="Mauricio Paz França [0]",
		pos="5954,224.5",
		width=1.3472];
	67	 [URL="http://buscatextual.cnpq.br/buscatextual/visualizacv.do?metodo=apresentar&id=K4290851T1&tipo=completo&idiomaExibicao=1",
		color="#17272B",
		fontcolor="#FFFFFF",
		height=0.23611,
		label="Paulo C. Comassetto de Aguirre [0]",
		pos="6087,224.5",
		width=1.8472];
	68	 [URL="http://buscatextual.cnpq.br/buscatextual/visualizacv.do?metodo=apresentar&id=K4789444P1&tipo=completo&idiomaExibicao=1",
		color="#17272B",
		fontcolor="#FFFFFF",
		height=0.23611,
		label="Pedro R. de Azambuja Madruga [0]",
		pos="6238,224.5",
		width=1.8472];
	69	 [URL="http://buscatextual.cnpq.br/buscatextual/visualizacv.do?metodo=apresentar&id=K4708034D7&tipo=completo&idiomaExibicao=1",
		color="#17272B",
		fontcolor="#FFFFFF",
		height=0.23611,
		label="Renato Alves da Silva [0]",
		pos="6373,224.5",
		width=1.4028];
	70	 [URL="http://buscatextual.cnpq.br/buscatextual/visualizacv.do?metodo=apresentar&id=K4431936H5&tipo=completo&idiomaExibicao=1",
		color="#17272B",
		fontcolor="#FFFFFF",
		height=0.23611,
		label="Rodrigo André Klamt [0]",
		pos="6491,224.5",
		width=1.375];
	71	 [URL="http://buscatextual.cnpq.br/buscatextual/visualizacv.do?metodo=apresentar&id=K4214133U2&tipo=completo&idiomaExibicao=1",
		color="#17272B",
		fontcolor="#FFFFFF",
		height=0.23611,
		label="Roger Gallon [0]",
		pos="6595,224.5",
		width=1];
	72	 [URL="http://buscatextual.cnpq.br/buscatextual/visualizacv.do?metodo=apresentar&id=K4770487Y8&tipo=completo&idiomaExibicao=1",
		color="#17272B",
		fontcolor="#FFFFFF",
		height=0.23611,
		label="Sam da Silva Devincenzi [0]",
		pos="6704,224.5",
		width=1.5278];
	74	 [URL="http://buscatextual.cnpq.br/buscatextual/visualizacv.do?metodo=apresentar&id=K4708693Y8&tipo=completo&idiomaExibicao=1",
		color="#17272B",
		fontcolor="#FFFFFF",
		height=0.23611,
		label="Simone Dornelles Venquiaruto [0]",
		pos="6841,224.5",
		width=1.7778];
	76	 [URL="http://buscatextual.cnpq.br/buscatextual/visualizacv.do?metodo=apresentar&id=K4794703P0&tipo=completo&idiomaExibicao=1",
		color="#17272B",
		fontcolor="#FFFFFF",
		height=0.23611,
		label="Telmo E. Camilo Deifeld [0]",
		pos="6979,224.5",
		width=1.5556];
	78	 [URL="http://buscatextual.cnpq.br/buscatextual/visualizacv.do?metodo=apresentar&id=K4485183E9&tipo=completo&idiomaExibicao=1",
		color="#17272B",
		fontcolor="#FFFFFF",
		height=0.23611,
		label="Tonismar d. Santos Pereira [0]",
		pos="7112,224.5",
		width=1.625];
	79	 [URL="http://buscatextual.cnpq.br/buscatextual/visualizacv.do?metodo=apresentar&id=K4774572J8&tipo=completo&idiomaExibicao=1",
		color="#17272B",
		fontcolor="#FFFFFF",
		height=0.23611,
		label="Vicente Bergamini Puglia [0]",
		pos="7245,224.5",
		width=1.5694];
	80	 [URL="http://buscatextual.cnpq.br/buscatextual/visualizacv.do?metodo=apresentar&id=K4506714E0&tipo=completo&idiomaExibicao=1",
		color="#17272B",
		fontcolor="#FFFFFF",
		height=0.23611,
		label="Vilnei de Oliveira Dias [0]",
		pos="7372,224.5",
		width=1.4583];
	82	 [URL="http://buscatextual.cnpq.br/buscatextual/visualizacv.do?metodo=apresentar&id=K4735562P2&tipo=completo&idiomaExibicao=1",
		color="#17272B",
		fontcolor="#FFFFFF",
		height=0.23611,
		label="Wilber F. Chambi Tapahuasco [0]",
		pos="7507,224.5",
		width=1.7778];
}
