strict graph grafo2 {
	graph [bb="0,0,7575,273",
		id=grafo2,
		overlap=False
	];
	node [fontsize=8,
		label="\N",
		shape=rectangle,
		style=filled
	];
	0	 [color="#17272B",
		fontcolor="#FFFFFF",
		height=0.23611,
		label="Roberlaine Ribeiro Jorge [0]",
		pos="55,264.5",
		width=1.5278];
	1	 [color="#17272B",
		fontcolor="#FFFFFF",
		height=0.23611,
		label="Adriana Gindri Salbego [0]",
		pos="181,264.5",
		width=1.4722];
	2	 [color="#17272B",
		fontcolor="#FFFFFF",
		height=0.23611,
		label="Aldoni Gabriel Wiedenhoft [0]",
		pos="311,264.5",
		width=1.625];
	3	 [color="#17272B",
		fontcolor="#FFFFFF",
		height=0.23611,
		label="Alessandro Bof de Oliveira [3]",
		pos="447,264.5",
		width=1.6389];
	4	 [color="#17272B",
		fontcolor="#FFFFFF",
		height=0.23611,
		label="Alessandro Gonçalves Girardi [12]",
		pos="623,200.5",
		width=1.8194];
	3 -- 4	 [fontsize=8,
		label=1.0,
		lp="551,232.5",
		pos="468.58,255.9 502.45,243.97 567.71,220.98 601.52,209.07"];
	32	 [URL="http://buscatextual.cnpq.br/buscatextual/visualizacv.do?metodo=apresentar&id=K4705411A3&tipo=completo&idiomaExibicao=1",
		color="#17272B",
		fontcolor="#FFFFFF",
		height=0.23611,
		label="Fabio Natanael Kepler [3]",
		pos="447,136.5",
		width=1.4306];
	3 -- 32	 [fontsize=8,
		label=1.0,
		lp="452,200.5",
		pos="447,256 447,233.64 447,167.64 447,145.12"];
	61	 [URL="http://buscatextual.cnpq.br/buscatextual/visualizacv.do?metodo=apresentar&id=K4762397U0&tipo=completo&idiomaExibicao=1",
		color="#17272B",
		fontcolor="#FFFFFF",
		height=0.23611,
		label="Marcia Cristina Cera [4]",
		pos="371,8.5",
		width=1.3611];
	3 -- 61	 [fontsize=8,
		label=3.0,
		lp="315,136.5",
		pos="415.57,255.94 375.12,245.28 310,224.54 310,201.5 310,201.5 310,201.5 310,71.5 310,45.83 336.9,26.912 354.97,17.099"];
	4 -- 32	 [fontsize=8,
		label=1.0,
		lp="551,168.5",
		pos="601.42,191.9 567.55,179.97 502.29,156.98 468.48,145.07"];
	4 -- 61	 [fontsize=8,
		label=1.0,
		lp="373,104.5",
		pos="557.49,193.04 495.43,185.49 408.47,170.7 386,145.5 352.64,108.09 364.08,39.96 369.14,17.162"];
	53	 [URL="http://buscatextual.cnpq.br/buscatextual/visualizacv.do?metodo=apresentar&id=K4207651A5&tipo=completo&idiomaExibicao=1",
		color="#17272B",
		fontcolor="#FFFFFF",
		height=0.23611,
		label="Lucas Compassi Severo [8]",
		pos="671,136.5",
		width=1.4722];
	4 -- 53	 [fontsize=8,
		label=8.0,
		lp="655,168.5",
		pos="628.89,191.9 638.1,180 655.82,157.1 665.07,145.16"];
	73	 [URL="http://buscatextual.cnpq.br/buscatextual/visualizacv.do?metodo=apresentar&id=K4775723P6&tipo=completo&idiomaExibicao=1",
		color="#17272B",
		fontcolor="#FFFFFF",
		height=0.23611,
		label="Sidinei Ghissoni [1]",
		pos="783,136.5",
		width=1.125];
	4 -- 73	 [fontsize=8,
		label=1.0,
		lp="718,168.5",
		pos="642.62,191.9 673.33,180 732.41,157.1 763.22,145.16"];
	75	 [URL="http://buscatextual.cnpq.br/buscatextual/visualizacv.do?metodo=apresentar&id=K4431947U4&tipo=completo&idiomaExibicao=1",
		color="#17272B",
		fontcolor="#FFFFFF",
		height=0.23611,
		label="Tanísia Possani Severo [2]",
		pos="894,136.5",
		width=1.4444];
	4 -- 75	 [fontsize=8,
		label=2.0,
		lp="780,168.5",
		pos="655.96,191.96 708.01,180.05 808.68,157.02 860.85,145.08"];
	32 -- 61	 [fontsize=8,
		label=2.0,
		lp="408,72.5",
		pos="439.74,127.95 430.38,117.93 414.02,99.428 403,81.5 389.54,59.589 378.59,31.03 373.72,17.404"];
	44	 [URL="http://buscatextual.cnpq.br/buscatextual/visualizacv.do?metodo=apresentar&id=K4706127U2&tipo=completo&idiomaExibicao=1",
		color="#17272B",
		fontcolor="#FFFFFF",
		height=0.23611,
		label="João P. Silva da Silva [3]",
		pos="472,72.5",
		width=1.375];
	32 -- 44	 [fontsize=8,
		label=2.0,
		lp="466,104.5",
		pos="450.07,127.9 454.86,116 464.1,93.102 468.91,81.165"];
	44 -- 61	 [fontsize=8,
		label=1.0,
		lp="433,40.5",
		pos="459.62,63.898 440.23,51.998 402.93,29.102 383.49,17.165"];
	59	 [URL="http://buscatextual.cnpq.br/buscatextual/visualizacv.do?metodo=apresentar&id=K4200570U3&tipo=completo&idiomaExibicao=1",
		color="#17272B",
		fontcolor="#FFFFFF",
		height=0.23611,
		label="Magnos Baroni [5]",
		pos="558,8.5",
		width=1.0694];
	44 -- 59	 [fontsize=8,
		label=1.0,
		lp="526,40.5",
		pos="482.55,63.898 499.05,51.998 530.81,29.102 547.37,17.165"];
	5	 [URL="http://buscatextual.cnpq.br/buscatextual/visualizacv.do?metodo=apresentar&id=K4493298H6&tipo=completo&idiomaExibicao=1",
		color="#17272B",
		fontcolor="#FFFFFF",
		height=0.23611,
		label="Alice Fonseca Finger [0]",
		pos="573,264.5",
		width=1.3611];
	6	 [URL="http://buscatextual.cnpq.br/buscatextual/visualizacv.do?metodo=apresentar&id=K4762604D8&tipo=completo&idiomaExibicao=1",
		color="#17272B",
		fontcolor="#FFFFFF",
		height=0.23611,
		label="Aline Vieira de Mello [0]",
		pos="691,264.5",
		width=1.4028];
	7	 [URL="http://buscatextual.cnpq.br/buscatextual/visualizacv.do?metodo=apresentar&id=K4138436A2&tipo=completo&idiomaExibicao=1",
		color="#17272B",
		fontcolor="#FFFFFF",
		height=0.23611,
		label="Alisson Simonetti Milani [0]",
		pos="814,264.5",
		width=1.5139];
	8	 [URL="http://buscatextual.cnpq.br/buscatextual/visualizacv.do?metodo=apresentar&id=K4768356E6&tipo=completo&idiomaExibicao=1",
		color="#17272B",
		fontcolor="#FFFFFF",
		height=0.23611,
		label="Almir B. da S. Santos Neto [3]",
		pos="946,264.5",
		width=1.6389];
	11	 [URL="http://buscatextual.cnpq.br/buscatextual/visualizacv.do?metodo=apresentar&id=K4746902Z8&tipo=completo&idiomaExibicao=1",
		color="#17272B",
		fontcolor="#FFFFFF",
		height=0.23611,
		label="André Lübeck [2]",
		pos="946,200.5",
		width=1.0417];
	8 -- 11	 [fontsize=8,
		label=2.0,
		lp="951,232.5",
		pos="946,255.9 946,244 946,221.1 946,209.16"];
	81	 [URL="http://buscatextual.cnpq.br/buscatextual/visualizacv.do?metodo=apresentar&id=K4763907P7&tipo=completo&idiomaExibicao=1",
		color="#17272B",
		fontcolor="#FFFFFF",
		height=0.23611,
		label="Wang Chong [2]",
		pos="1059,200.5",
		width=0.97222];
	8 -- 81	 [fontsize=8,
		label=1.0,
		lp="1015,232.5",
		pos="959.86,255.9 981.54,244 1023.3,221.1 1045,209.16"];
	9	 [URL="http://buscatextual.cnpq.br/buscatextual/visualizacv.do?metodo=apresentar&id=K4706031A3&tipo=completo&idiomaExibicao=1",
		color="#17272B",
		fontcolor="#FFFFFF",
		height=0.23611,
		label="Amanda Meincke Melo [1]",
		pos="1197,264.5",
		width=1.4444];
	17	 [URL="http://buscatextual.cnpq.br/buscatextual/visualizacv.do?metodo=apresentar&id=K4531572T6&tipo=completo&idiomaExibicao=1",
		color="#17272B",
		fontcolor="#FFFFFF",
		height=0.23611,
		label="Cristiano Tolfo [2]",
		pos="1197,200.5",
		width=1.0833];
	9 -- 17	 [fontsize=8,
		label=1.0,
		lp="1202,232.5",
		pos="1197,255.9 1197,244 1197,221.1 1197,209.16"];
	36	 [URL="http://buscatextual.cnpq.br/buscatextual/visualizacv.do?metodo=apresentar&id=K4772321Z0&tipo=completo&idiomaExibicao=1",
		color="#17272B",
		fontcolor="#FFFFFF",
		height=0.23611,
		label="Fladimir Fernandes dos Santos [1]",
		pos="1197,136.5",
		width=1.7778];
	17 -- 36	 [fontsize=8,
		label=1.0,
		lp="1202,168.5",
		pos="1197,191.9 1197,180 1197,157.1 1197,145.16"];
	10	 [URL="http://buscatextual.cnpq.br/buscatextual/visualizacv.do?metodo=apresentar&id=K4830788U3&tipo=completo&idiomaExibicao=1",
		color="#17272B",
		fontcolor="#FFFFFF",
		height=0.23611,
		label="Ana P. Gomes Lara [0]",
		pos="1314,264.5",
		width=1.3056];
	12	 [URL="http://buscatextual.cnpq.br/buscatextual/visualizacv.do?metodo=apresentar&id=K4774489J5&tipo=completo&idiomaExibicao=1",
		color="#17272B",
		fontcolor="#FFFFFF",
		height=0.23611,
		label="Andréa Sabedra Bordin [0]",
		pos="1432,264.5",
		width=1.4583];
	13	 [URL="http://buscatextual.cnpq.br/buscatextual/visualizacv.do?metodo=apresentar&id=K4455561J2&tipo=completo&idiomaExibicao=1",
		color="#17272B",
		fontcolor="#FFFFFF",
		height=0.23611,
		label="Bruno Boessio Vizzotto [0]",
		pos="1555,264.5",
		width=1.4583];
	14	 [URL="http://buscatextual.cnpq.br/buscatextual/visualizacv.do?metodo=apresentar&id=K4784311T9&tipo=completo&idiomaExibicao=1",
		color="#17272B",
		fontcolor="#FFFFFF",
		height=0.23611,
		label="Carlos A. Dilli Gonçalves [0]",
		pos="1682,264.5",
		width=1.5694];
	15	 [URL="http://buscatextual.cnpq.br/buscatextual/visualizacv.do?metodo=apresentar&id=K4210138P2&tipo=completo&idiomaExibicao=1",
		color="#17272B",
		fontcolor="#FFFFFF",
		height=0.23611,
		label="Cesar F. da Cruz Cristaldo [0]",
		pos="1815,264.5",
		width=1.6111];
	16	 [URL="http://buscatextual.cnpq.br/buscatextual/visualizacv.do?metodo=apresentar&id=K4735383Y1&tipo=completo&idiomaExibicao=1",
		color="#17272B",
		fontcolor="#FFFFFF",
		height=0.23611,
		label="Claudio Schepke [0]",
		pos="1933,264.5",
		width=1.1528];
	18	 [URL="http://buscatextual.cnpq.br/buscatextual/visualizacv.do?metodo=apresentar&id=K4700020T3&tipo=completo&idiomaExibicao=1",
		color="#17272B",
		fontcolor="#FFFFFF",
		height=0.23611,
		label="Daniel Welfer [1]",
		pos="2031,264.5",
		width=1.0556];
	50	 [URL="http://buscatextual.cnpq.br/buscatextual/visualizacv.do?metodo=apresentar&id=K4737837T5&tipo=completo&idiomaExibicao=1",
		color="#17272B",
		fontcolor="#FFFFFF",
		height=0.23611,
		label="Juliano Fontoura Kazienko [1]",
		pos="2031,200.5",
		width=1.5972];
	18 -- 50	 [fontsize=8,
		label=1.0,
		lp="2036,232.5",
		pos="2031,255.9 2031,244 2031,221.1 2031,209.16"];
	19	 [URL="http://buscatextual.cnpq.br/buscatextual/visualizacv.do?metodo=apresentar&id=K4701470D0&tipo=completo&idiomaExibicao=1",
		color="#17272B",
		fontcolor="#FFFFFF",
		height=0.23611,
		label="Diego Luis Kreutz [0]",
		pos="2132,264.5",
		width=1.2361];
	20	 [URL="http://buscatextual.cnpq.br/buscatextual/visualizacv.do?metodo=apresentar&id=K4777459H9&tipo=completo&idiomaExibicao=1",
		color="#17272B",
		fontcolor="#FFFFFF",
		height=0.23611,
		label="Divane Marcon [1]",
		pos="2234,264.5",
		width=1.0972];
	29	 [URL="http://buscatextual.cnpq.br/buscatextual/visualizacv.do?metodo=apresentar&id=K4750344P6&tipo=completo&idiomaExibicao=1",
		color="#17272B",
		fontcolor="#FFFFFF",
		height=0.23611,
		label="Fabiane C. Höpner Noguti [1]",
		pos="2234,200.5",
		width=1.5833];
	20 -- 29	 [fontsize=8,
		label=1.0,
		lp="2239,232.5",
		pos="2234,255.9 2234,244 2234,221.1 2234,209.16"];
	21	 [URL="http://buscatextual.cnpq.br/buscatextual/visualizacv.do?metodo=apresentar&id=K4422977Z6&tipo=completo&idiomaExibicao=1",
		color="#17272B",
		fontcolor="#FFFFFF",
		height=0.23611,
		label="Douglas Eduardo Rosa [0]",
		pos="2342,264.5",
		width=1.4167];
	22	 [URL="http://buscatextual.cnpq.br/buscatextual/visualizacv.do?metodo=apresentar&id=K4706637E6&tipo=completo&idiomaExibicao=1",
		color="#17272B",
		fontcolor="#FFFFFF",
		height=0.23611,
		label="Ederli Marangon [3]",
		pos="558,136.5",
		width=1.1528];
	22 -- 59	 [fontsize=8,
		label=2.0,
		lp="563,72.5",
		pos="558,128 558,105.64 558,39.637 558,17.125"];
	42	 [URL="http://buscatextual.cnpq.br/buscatextual/visualizacv.do?metodo=apresentar&id=K4240145H4&tipo=completo&idiomaExibicao=1",
		color="#17272B",
		fontcolor="#FFFFFF",
		height=0.23611,
		label="Jaelson Budny [3]",
		pos="623,72.5",
		width=1.0278];
	22 -- 42	 [fontsize=8,
		label=1.0,
		lp="600,104.5",
		pos="565.97,127.9 578.45,116 602.45,93.102 614.96,81.165"];
	63	 [URL="http://buscatextual.cnpq.br/buscatextual/visualizacv.do?metodo=apresentar&id=K4793625H0&tipo=completo&idiomaExibicao=1",
		color="#17272B",
		fontcolor="#FFFFFF",
		height=0.23611,
		label="Marco A. Durlo Tier [5]",
		pos="727,72.5",
		width=1.3611];
	22 -- 63	 [fontsize=8,
		label=1.0,
		lp="658,104.5",
		pos="578.72,127.9 611.25,115.97 673.91,92.978 706.37,81.068"];
	42 -- 59	 [fontsize=8,
		label=3.0,
		lp="600,40.5",
		pos="615.03,63.898 602.55,51.998 578.55,29.102 566.04,17.165"];
	77	 [URL="http://buscatextual.cnpq.br/buscatextual/visualizacv.do?metodo=apresentar&id=K4773464H8&tipo=completo&idiomaExibicao=1",
		color="#17272B",
		fontcolor="#FFFFFF",
		height=0.23611,
		label="Tonilson de Souza Rosendo [4]",
		pos="727,8.5",
		width=1.625];
	63 -- 77	 [fontsize=8,
		label=4.0,
		lp="732,40.5",
		pos="727,63.898 727,51.998 727,29.102 727,17.165"];
	23	 [URL="http://buscatextual.cnpq.br/buscatextual/visualizacv.do?metodo=apresentar&id=K4771052D4&tipo=completo&idiomaExibicao=1",
		color="#17272B",
		fontcolor="#FFFFFF",
		height=0.23611,
		label="Edgar G. Souza dos Santos [0]",
		pos="2469,264.5",
		width=1.6111];
	24	 [URL="http://buscatextual.cnpq.br/buscatextual/visualizacv.do?metodo=apresentar&id=K4489747T3&tipo=completo&idiomaExibicao=1",
		color="#17272B",
		fontcolor="#FFFFFF",
		height=0.23611,
		label="Edson Rodrigo Schlosser [6]",
		pos="2600,264.5",
		width=1.5139];
	54	 [URL="http://buscatextual.cnpq.br/buscatextual/visualizacv.do?metodo=apresentar&id=K4431976H3&tipo=completo&idiomaExibicao=1",
		color="#17272B",
		fontcolor="#FFFFFF",
		height=0.23611,
		label="Lucas Santos Pereira [1]",
		pos="2583,200.5",
		width=1.3611];
	24 -- 54	 [fontsize=8,
		label=1.0,
		lp="2598,232.5",
		pos="2597.9,255.9 2594.7,244 2588.4,221.1 2585.1,209.16"];
	64	 [URL="http://buscatextual.cnpq.br/buscatextual/visualizacv.do?metodo=apresentar&id=K4760949D2&tipo=completo&idiomaExibicao=1",
		color="#17272B",
		fontcolor="#FFFFFF",
		height=0.23611,
		label="Marcos V. Thomas Heckler [7]",
		pos="2668,136.5",
		width=1.6528];
	24 -- 64	 [fontsize=8,
		label=6.0,
		lp="2654,200.5",
		pos="2606.7,255.9 2615.2,245.83 2630.2,227.27 2640,209.5 2652.2,187.42 2661.6,158.94 2665.7,145.37"];
	54 -- 64	 [fontsize=8,
		label=1.0,
		lp="2636,168.5",
		pos="2593.4,191.9 2609.7,180 2641.1,157.1 2657.5,145.16"];
	25	 [URL="http://buscatextual.cnpq.br/buscatextual/visualizacv.do?metodo=apresentar&id=K4447823J3&tipo=completo&idiomaExibicao=1",
		color="#17272B",
		fontcolor="#FFFFFF",
		height=0.23611,
		label="Eduardo Machado dos Santos [0]",
		pos="2867,264.5",
		width=1.7083];
	26	 [URL="http://buscatextual.cnpq.br/buscatextual/visualizacv.do?metodo=apresentar&id=K4745901E6&tipo=completo&idiomaExibicao=1",
		color="#17272B",
		fontcolor="#FFFFFF",
		height=0.23611,
		label="Elvira L. A. Ribeiro Mancini [0]",
		pos="3009,264.5",
		width=1.7222];
	27	 [URL="http://buscatextual.cnpq.br/buscatextual/visualizacv.do?metodo=apresentar&id=K4736047Y7&tipo=completo&idiomaExibicao=1",
		color="#17272B",
		fontcolor="#FFFFFF",
		height=0.23611,
		label="Eracilda Fontanela [0]",
		pos="3134,264.5",
		width=1.25];
	28	 [URL="http://buscatextual.cnpq.br/buscatextual/visualizacv.do?metodo=apresentar&id=K4777486H1&tipo=completo&idiomaExibicao=1",
		color="#17272B",
		fontcolor="#FFFFFF",
		height=0.23611,
		label="Ewerson L. de Souza Carvalho [0]",
		pos="3262,264.5",
		width=1.8056];
	30	 [URL="http://buscatextual.cnpq.br/buscatextual/visualizacv.do?metodo=apresentar&id=K4730810Z6&tipo=completo&idiomaExibicao=1",
		color="#17272B",
		fontcolor="#FFFFFF",
		height=0.23611,
		label="Fabiano Tondello Castoldi [0]",
		pos="3402,264.5",
		width=1.5694];
	31	 [URL="http://buscatextual.cnpq.br/buscatextual/visualizacv.do?metodo=apresentar&id=K4217693Y4&tipo=completo&idiomaExibicao=1",
		color="#17272B",
		fontcolor="#FFFFFF",
		height=0.23611,
		label="Fábio Beck [0]",
		pos="3509,264.5",
		width=0.90278];
	33	 [URL="http://buscatextual.cnpq.br/buscatextual/visualizacv.do?metodo=apresentar&id=K4756138Z6&tipo=completo&idiomaExibicao=1",
		color="#17272B",
		fontcolor="#FFFFFF",
		height=0.23611,
		label="Fátima Cibéle Soares [4]",
		pos="2738,264.5",
		width=1.3611];
	51	 [URL="http://buscatextual.cnpq.br/buscatextual/visualizacv.do?metodo=apresentar&id=K4765516D8&tipo=completo&idiomaExibicao=1",
		color="#17272B",
		fontcolor="#FFFFFF",
		height=0.23611,
		label="Jumar Luís Russi [5]",
		pos="2738,200.5",
		width=1.1667];
	33 -- 51	 [fontsize=8,
		label=4.0,
		lp="2743,232.5",
		pos="2738,255.9 2738,244 2738,221.1 2738,209.16"];
	51 -- 64	 [fontsize=8,
		label=1.0,
		lp="2713,168.5",
		pos="2729.4,191.9 2716,180 2690.1,157.1 2676.7,145.16"];
	34	 [URL="http://buscatextual.cnpq.br/buscatextual/visualizacv.do?metodo=apresentar&id=K4531964J0&tipo=completo&idiomaExibicao=1",
		color="#17272B",
		fontcolor="#FFFFFF",
		height=0.23611,
		label="Felipe Bovolini Grigoletto [0]",
		pos="3616,264.5",
		width=1.5694];
	35	 [URL="http://buscatextual.cnpq.br/buscatextual/visualizacv.do?metodo=apresentar&id=K4227366P8&tipo=completo&idiomaExibicao=1",
		color="#17272B",
		fontcolor="#FFFFFF",
		height=0.23611,
		label="Felipe Denardin Costa [0]",
		pos="3741,264.5",
		width=1.4028];
	37	 [URL="http://buscatextual.cnpq.br/buscatextual/visualizacv.do?metodo=apresentar&id=K4232121Z5&tipo=completo&idiomaExibicao=1",
		color="#17272B",
		fontcolor="#FFFFFF",
		height=0.23611,
		label="Giovani Guarienti Pozzebon [0]",
		pos="3870,264.5",
		width=1.6667];
	38	 [URL="http://buscatextual.cnpq.br/buscatextual/visualizacv.do?metodo=apresentar&id=K4262327Z0&tipo=completo&idiomaExibicao=1",
		color="#17272B",
		fontcolor="#FFFFFF",
		height=0.23611,
		label="Guilherme Sebastião da Silva [0]",
		pos="4011,264.5",
		width=1.7361];
	39	 [URL="http://buscatextual.cnpq.br/buscatextual/visualizacv.do?metodo=apresentar&id=K4704445Z0&tipo=completo&idiomaExibicao=1",
		color="#17272B",
		fontcolor="#FFFFFF",
		height=0.23611,
		label="Gustavo Fuhr Santiago [0]",
		pos="4143,264.5",
		width=1.4167];
	40	 [URL="http://buscatextual.cnpq.br/buscatextual/visualizacv.do?metodo=apresentar&id=K4113352J0&tipo=completo&idiomaExibicao=1",
		color="#17272B",
		fontcolor="#FFFFFF",
		height=0.23611,
		label="Igor A. Cancela Melnik [0]",
		pos="4265,264.5",
		width=1.4722];
	41	 [URL="http://buscatextual.cnpq.br/buscatextual/visualizacv.do?metodo=apresentar&id=K4238605T3&tipo=completo&idiomaExibicao=1",
		color="#17272B",
		fontcolor="#FFFFFF",
		height=0.23611,
		label="Jacson Weber de Menezes [1]",
		pos="4393,264.5",
		width=1.5833];
	56	 [URL="http://buscatextual.cnpq.br/buscatextual/visualizacv.do?metodo=apresentar&id=K4138584E7&tipo=completo&idiomaExibicao=1",
		color="#17272B",
		fontcolor="#FFFFFF",
		height=0.23611,
		label="Luis E. Gomez Armas [1]",
		pos="4393,200.5",
		width=1.4167];
	41 -- 56	 [fontsize=8,
		label=1.0,
		lp="4398,232.5",
		pos="4393,255.9 4393,244 4393,221.1 4393,209.16"];
	43	 [URL="http://buscatextual.cnpq.br/buscatextual/visualizacv.do?metodo=apresentar&id=K4735796P2&tipo=completo&idiomaExibicao=1",
		color="#17272B",
		fontcolor="#FFFFFF",
		height=0.23611,
		label="Jean F. Patikowski Cheiran [0]",
		pos="4527,264.5",
		width=1.625];
	45	 [URL="http://buscatextual.cnpq.br/buscatextual/visualizacv.do?metodo=apresentar&id=K4730421U3&tipo=completo&idiomaExibicao=1",
		color="#17272B",
		fontcolor="#FFFFFF",
		height=0.23611,
		label="João P. Juchem Neto [0]",
		pos="4652,264.5",
		width=1.3333];
	46	 [URL="http://buscatextual.cnpq.br/buscatextual/visualizacv.do?metodo=apresentar&id=K4794689T3&tipo=completo&idiomaExibicao=1",
		color="#17272B",
		fontcolor="#FFFFFF",
		height=0.23611,
		label="Jorge L. Palacios Felix [1]",
		pos="1075,264.5",
		width=1.4444];
	46 -- 81	 [fontsize=8,
		label=1.0,
		lp="1073,232.5",
		pos="1073,255.9 1070,244 1064.1,221.1 1061,209.16"];
	47	 [URL="http://buscatextual.cnpq.br/buscatextual/visualizacv.do?metodo=apresentar&id=K4790963U4&tipo=completo&idiomaExibicao=1",
		color="#17272B",
		fontcolor="#FFFFFF",
		height=0.23611,
		label="Jorge Pedraza Arpasi [0]",
		pos="4767,264.5",
		width=1.3611];
	48	 [URL="http://buscatextual.cnpq.br/buscatextual/visualizacv.do?metodo=apresentar&id=K4782175D9&tipo=completo&idiomaExibicao=1",
		color="#17272B",
		fontcolor="#FFFFFF",
		height=0.23611,
		label="José C. Bins Filho [0]",
		pos="4878,264.5",
		width=1.2083];
	49	 [URL="http://buscatextual.cnpq.br/buscatextual/visualizacv.do?metodo=apresentar&id=K4787582U6&tipo=completo&idiomaExibicao=1",
		color="#17272B",
		fontcolor="#FFFFFF",
		height=0.23611,
		label="Jose W. Maciel Kaehler [0]",
		pos="4993,264.5",
		width=1.4861];
	52	 [URL="http://buscatextual.cnpq.br/buscatextual/visualizacv.do?metodo=apresentar&id=K4120287A6&tipo=completo&idiomaExibicao=1",
		color="#17272B",
		fontcolor="#FFFFFF",
		height=0.23611,
		label="Leandro Antônio Thesing [0]",
		pos="5120,264.5",
		width=1.5417];
	55	 [URL="http://buscatextual.cnpq.br/buscatextual/visualizacv.do?metodo=apresentar&id=K4463499Z6&tipo=completo&idiomaExibicao=1",
		color="#17272B",
		fontcolor="#FFFFFF",
		height=0.23611,
		label="Luis Eduardo Kosteski [0]",
		pos="5244,264.5",
		width=1.4167];
	57	 [URL="http://buscatextual.cnpq.br/buscatextual/visualizacv.do?metodo=apresentar&id=K4721788P2&tipo=completo&idiomaExibicao=1",
		color="#17272B",
		fontcolor="#FFFFFF",
		height=0.23611,
		label="Luis E. Roca Bruno [0]",
		pos="5359,264.5",
		width=1.2917];
	58	 [URL="http://buscatextual.cnpq.br/buscatextual/visualizacv.do?metodo=apresentar&id=K4219983D6&tipo=completo&idiomaExibicao=1",
		color="#17272B",
		fontcolor="#FFFFFF",
		height=0.23611,
		label="Luiz A. Maccari Junior [0]",
		pos="5476,264.5",
		width=1.4583];
	60	 [URL="http://buscatextual.cnpq.br/buscatextual/visualizacv.do?metodo=apresentar&id=K4446502U7&tipo=completo&idiomaExibicao=1",
		color="#17272B",
		fontcolor="#FFFFFF",
		height=0.23611,
		label="Marcelo Hahn Durgante [0]",
		pos="5600,264.5",
		width=1.4861];
	62	 [URL="http://buscatextual.cnpq.br/buscatextual/visualizacv.do?metodo=apresentar&id=K4771459U5&tipo=completo&idiomaExibicao=1",
		color="#17272B",
		fontcolor="#FFFFFF",
		height=0.23611,
		label="Márcio Stefanello [0]",
		pos="5715,264.5",
		width=1.2083];
	65	 [URL="http://buscatextual.cnpq.br/buscatextual/visualizacv.do?metodo=apresentar&id=K4133092P8&tipo=completo&idiomaExibicao=1",
		color="#17272B",
		fontcolor="#FFFFFF",
		height=0.23611,
		label="Marilia Ferreira Tamiosso [0]",
		pos="5834,264.5",
		width=1.5972];
	66	 [URL="http://buscatextual.cnpq.br/buscatextual/visualizacv.do?metodo=apresentar&id=K4450378T2&tipo=completo&idiomaExibicao=1",
		color="#17272B",
		fontcolor="#FFFFFF",
		height=0.23611,
		label="Mauricio Paz França [0]",
		pos="5958,264.5",
		width=1.3472];
	67	 [URL="http://buscatextual.cnpq.br/buscatextual/visualizacv.do?metodo=apresentar&id=K4290851T1&tipo=completo&idiomaExibicao=1",
		color="#17272B",
		fontcolor="#FFFFFF",
		height=0.23611,
		label="Paulo C. Comassetto de Aguirre [0]",
		pos="6091,264.5",
		width=1.8472];
	68	 [URL="http://buscatextual.cnpq.br/buscatextual/visualizacv.do?metodo=apresentar&id=K4789444P1&tipo=completo&idiomaExibicao=1",
		color="#17272B",
		fontcolor="#FFFFFF",
		height=0.23611,
		label="Pedro R. de Azambuja Madruga [0]",
		pos="6242,264.5",
		width=1.8472];
	69	 [URL="http://buscatextual.cnpq.br/buscatextual/visualizacv.do?metodo=apresentar&id=K4708034D7&tipo=completo&idiomaExibicao=1",
		color="#17272B",
		fontcolor="#FFFFFF",
		height=0.23611,
		label="Renato Alves da Silva [0]",
		pos="6377,264.5",
		width=1.4028];
	70	 [URL="http://buscatextual.cnpq.br/buscatextual/visualizacv.do?metodo=apresentar&id=K4431936H5&tipo=completo&idiomaExibicao=1",
		color="#17272B",
		fontcolor="#FFFFFF",
		height=0.23611,
		label="Rodrigo André Klamt [0]",
		pos="6495,264.5",
		width=1.375];
	71	 [URL="http://buscatextual.cnpq.br/buscatextual/visualizacv.do?metodo=apresentar&id=K4214133U2&tipo=completo&idiomaExibicao=1",
		color="#17272B",
		fontcolor="#FFFFFF",
		height=0.23611,
		label="Roger Gallon [0]",
		pos="6599,264.5",
		width=1];
	72	 [URL="http://buscatextual.cnpq.br/buscatextual/visualizacv.do?metodo=apresentar&id=K4770487Y8&tipo=completo&idiomaExibicao=1",
		color="#17272B",
		fontcolor="#FFFFFF",
		height=0.23611,
		label="Sam da Silva Devincenzi [0]",
		pos="6708,264.5",
		width=1.5278];
	74	 [URL="http://buscatextual.cnpq.br/buscatextual/visualizacv.do?metodo=apresentar&id=K4708693Y8&tipo=completo&idiomaExibicao=1",
		color="#17272B",
		fontcolor="#FFFFFF",
		height=0.23611,
		label="Simone Dornelles Venquiaruto [0]",
		pos="6845,264.5",
		width=1.7778];
	76	 [URL="http://buscatextual.cnpq.br/buscatextual/visualizacv.do?metodo=apresentar&id=K4794703P0&tipo=completo&idiomaExibicao=1",
		color="#17272B",
		fontcolor="#FFFFFF",
		height=0.23611,
		label="Telmo E. Camilo Deifeld [0]",
		pos="6983,264.5",
		width=1.5556];
	78	 [URL="http://buscatextual.cnpq.br/buscatextual/visualizacv.do?metodo=apresentar&id=K4485183E9&tipo=completo&idiomaExibicao=1",
		color="#17272B",
		fontcolor="#FFFFFF",
		height=0.23611,
		label="Tonismar d. Santos Pereira [0]",
		pos="7116,264.5",
		width=1.625];
	79	 [URL="http://buscatextual.cnpq.br/buscatextual/visualizacv.do?metodo=apresentar&id=K4774572J8&tipo=completo&idiomaExibicao=1",
		color="#17272B",
		fontcolor="#FFFFFF",
		height=0.23611,
		label="Vicente Bergamini Puglia [0]",
		pos="7249,264.5",
		width=1.5694];
	80	 [URL="http://buscatextual.cnpq.br/buscatextual/visualizacv.do?metodo=apresentar&id=K4506714E0&tipo=completo&idiomaExibicao=1",
		color="#17272B",
		fontcolor="#FFFFFF",
		height=0.23611,
		label="Vilnei de Oliveira Dias [0]",
		pos="7376,264.5",
		width=1.4583];
	82	 [URL="http://buscatextual.cnpq.br/buscatextual/visualizacv.do?metodo=apresentar&id=K4735562P2&tipo=completo&idiomaExibicao=1",
		color="#17272B",
		fontcolor="#FFFFFF",
		height=0.23611,
		label="Wilber F. Chambi Tapahuasco [0]",
		pos="7511,264.5",
		width=1.7778];
}
